%YAML 1.1
%TAG !u! tag:unity3d.com,2011:
--- !u!1 &7940659057456599168
GameObject:
  m_ObjectHideFlags: 0
  m_CorrespondingSourceObject: {fileID: 0}
  m_PrefabInstance: {fileID: 0}
  m_PrefabAsset: {fileID: 0}
  serializedVersion: 6
  m_Component:
  - component: {fileID: 8360854396778008817}
  m_Layer: 0
  m_Name: JoystickArea
  m_TagString: Untagged
  m_Icon: {fileID: 0}
  m_NavMeshLayer: 0
  m_StaticEditorFlags: 0
  m_IsActive: 1
--- !u!224 &8360854396778008817
RectTransform:
  m_ObjectHideFlags: 0
  m_CorrespondingSourceObject: {fileID: 0}
  m_PrefabInstance: {fileID: 0}
  m_PrefabAsset: {fileID: 0}
  m_GameObject: {fileID: 7940659057456599168}
  m_LocalRotation: {x: -0, y: -0, z: -0, w: 1}
  m_LocalPosition: {x: 0, y: 0, z: 0}
  m_LocalScale: {x: 1, y: 1, z: 1}
  m_Children:
  - {fileID: 2677053209849312778}
  m_Father: {fileID: 0}
  m_RootOrder: 0
  m_LocalEulerAnglesHint: {x: 0, y: 0, z: 0}
  m_AnchorMin: {x: 0, y: 0}
  m_AnchorMax: {x: 0, y: 0}
  m_AnchoredPosition: {x: 200, y: 200}
  m_SizeDelta: {x: 400, y: 400}
  m_Pivot: {x: 0.5, y: 0.5}
--- !u!1001 &2754379652869806304
PrefabInstance:
  m_ObjectHideFlags: 0
  serializedVersion: 2
  m_Modification:
    m_TransformParent: {fileID: 8360854396778008817}
    m_Modifications:
    - target: {fileID: 1531213445540486, guid: e0815e227ed46e445b99930271e8942c, type: 3}
      propertyPath: m_Name
      value: Joystick
      objectReference: {fileID: 0}
    - target: {fileID: 114282555968907678, guid: e0815e227ed46e445b99930271e8942c,
        type: 3}
      propertyPath: dynamicJoystickMovementArea
      value: 
      objectReference: {fileID: 8360854396778008817}
    - target: {fileID: 224977699150327530, guid: e0815e227ed46e445b99930271e8942c,
        type: 3}
      propertyPath: m_Pivot.x
      value: 0.5
      objectReference: {fileID: 0}
    - target: {fileID: 224977699150327530, guid: e0815e227ed46e445b99930271e8942c,
        type: 3}
      propertyPath: m_Pivot.y
      value: 0.5
      objectReference: {fileID: 0}
    - target: {fileID: 224977699150327530, guid: e0815e227ed46e445b99930271e8942c,
        type: 3}
      propertyPath: m_RootOrder
      value: 0
      objectReference: {fileID: 0}
    - target: {fileID: 224977699150327530, guid: e0815e227ed46e445b99930271e8942c,
        type: 3}
      propertyPath: m_AnchorMax.x
      value: 0
      objectReference: {fileID: 0}
    - target: {fileID: 224977699150327530, guid: e0815e227ed46e445b99930271e8942c,
        type: 3}
      propertyPath: m_AnchorMax.y
      value: 0
      objectReference: {fileID: 0}
    - target: {fileID: 224977699150327530, guid: e0815e227ed46e445b99930271e8942c,
        type: 3}
      propertyPath: m_AnchorMin.x
      value: 0
      objectReference: {fileID: 0}
    - target: {fileID: 224977699150327530, guid: e0815e227ed46e445b99930271e8942c,
        type: 3}
      propertyPath: m_AnchorMin.y
      value: 0
      objectReference: {fileID: 0}
    - target: {fileID: 224977699150327530, guid: e0815e227ed46e445b99930271e8942c,
        type: 3}
      propertyPath: m_SizeDelta.x
      value: 150
      objectReference: {fileID: 0}
    - target: {fileID: 224977699150327530, guid: e0815e227ed46e445b99930271e8942c,
        type: 3}
      propertyPath: m_SizeDelta.y
      value: 150
      objectReference: {fileID: 0}
    - target: {fileID: 224977699150327530, guid: e0815e227ed46e445b99930271e8942c,
        type: 3}
      propertyPath: m_LocalPosition.x
      value: 0
      objectReference: {fileID: 0}
    - target: {fileID: 224977699150327530, guid: e0815e227ed46e445b99930271e8942c,
        type: 3}
      propertyPath: m_LocalPosition.y
      value: 0
      objectReference: {fileID: 0}
    - target: {fileID: 224977699150327530, guid: e0815e227ed46e445b99930271e8942c,
        type: 3}
      propertyPath: m_LocalPosition.z
      value: 0
      objectReference: {fileID: 0}
    - target: {fileID: 224977699150327530, guid: e0815e227ed46e445b99930271e8942c,
        type: 3}
      propertyPath: m_LocalRotation.w
      value: 1
      objectReference: {fileID: 0}
    - target: {fileID: 224977699150327530, guid: e0815e227ed46e445b99930271e8942c,
        type: 3}
      propertyPath: m_LocalRotation.x
      value: -0
      objectReference: {fileID: 0}
    - target: {fileID: 224977699150327530, guid: e0815e227ed46e445b99930271e8942c,
        type: 3}
      propertyPath: m_LocalRotation.y
      value: -0
      objectReference: {fileID: 0}
    - target: {fileID: 224977699150327530, guid: e0815e227ed46e445b99930271e8942c,
        type: 3}
      propertyPath: m_LocalRotation.z
      value: -0
      objectReference: {fileID: 0}
    - target: {fileID: 224977699150327530, guid: e0815e227ed46e445b99930271e8942c,
        type: 3}
      propertyPath: m_AnchoredPosition.x
      value: 200
      objectReference: {fileID: 0}
    - target: {fileID: 224977699150327530, guid: e0815e227ed46e445b99930271e8942c,
        type: 3}
      propertyPath: m_AnchoredPosition.y
      value: 200
      objectReference: {fileID: 0}
    - target: {fileID: 224977699150327530, guid: e0815e227ed46e445b99930271e8942c,
        type: 3}
      propertyPath: m_LocalEulerAnglesHint.x
      value: 0
      objectReference: {fileID: 0}
    - target: {fileID: 224977699150327530, guid: e0815e227ed46e445b99930271e8942c,
        type: 3}
      propertyPath: m_LocalEulerAnglesHint.y
      value: 0
      objectReference: {fileID: 0}
    - target: {fileID: 224977699150327530, guid: e0815e227ed46e445b99930271e8942c,
        type: 3}
      propertyPath: m_LocalEulerAnglesHint.z
      value: 0
      objectReference: {fileID: 0}
    m_RemovedComponents: []
  m_SourcePrefab: {fileID: 100100000, guid: e0815e227ed46e445b99930271e8942c, type: 3}
--- !u!224 &2677053209849312778 stripped
RectTransform:
  m_CorrespondingSourceObject: {fileID: 224977699150327530, guid: e0815e227ed46e445b99930271e8942c,
    type: 3}
  m_PrefabInstance: {fileID: 2754379652869806304}
  m_PrefabAsset: {fileID: 0}
