%YAML 1.1
%TAG !u! tag:unity3d.com,2011:
--- !u!1 &7242632815702308260
GameObject:
  m_ObjectHideFlags: 0
  m_CorrespondingSourceObject: {fileID: 0}
  m_PrefabInstance: {fileID: 0}
  m_PrefabAsset: {fileID: 0}
  serializedVersion: 6
  m_Component:
  - component: {fileID: 7242632815702308256}
  - component: {fileID: 7242632815702308257}
  - component: {fileID: 7242632815702308258}
  - component: {fileID: 7242632815702308259}
  m_Layer: 5
  m_Name: HUD
  m_TagString: Untagged
  m_Icon: {fileID: 0}
  m_NavMeshLayer: 0
  m_StaticEditorFlags: 0
  m_IsActive: 1
--- !u!224 &7242632815702308256
RectTransform:
  m_ObjectHideFlags: 0
  m_CorrespondingSourceObject: {fileID: 0}
  m_PrefabInstance: {fileID: 0}
  m_PrefabAsset: {fileID: 0}
  m_GameObject: {fileID: 7242632815702308260}
  m_LocalRotation: {x: 0, y: 0, z: 0, w: 1}
  m_LocalPosition: {x: 0, y: 0, z: 0}
  m_LocalScale: {x: 0, y: 0, z: 0}
  m_Children:
  - {fileID: 7242632815167412914}
  - {fileID: 3944376304175024840}
  m_Father: {fileID: 0}
  m_RootOrder: 0
  m_LocalEulerAnglesHint: {x: 0, y: 0, z: 0}
  m_AnchorMin: {x: 0, y: 0}
  m_AnchorMax: {x: 0, y: 0}
  m_AnchoredPosition: {x: 0, y: 0}
  m_SizeDelta: {x: 0, y: 0}
  m_Pivot: {x: 0, y: 0}
--- !u!223 &7242632815702308257
Canvas:
  m_ObjectHideFlags: 0
  m_CorrespondingSourceObject: {fileID: 0}
  m_PrefabInstance: {fileID: 0}
  m_PrefabAsset: {fileID: 0}
  m_GameObject: {fileID: 7242632815702308260}
  m_Enabled: 1
  serializedVersion: 3
  m_RenderMode: 0
  m_Camera: {fileID: 0}
  m_PlaneDistance: 100
  m_PixelPerfect: 0
  m_ReceivesEvents: 1
  m_OverrideSorting: 0
  m_OverridePixelPerfect: 0
  m_SortingBucketNormalizedSize: 0
  m_AdditionalShaderChannelsFlag: 0
  m_SortingLayerID: 0
  m_SortingOrder: 0
  m_TargetDisplay: 0
--- !u!114 &7242632815702308258
MonoBehaviour:
  m_ObjectHideFlags: 0
  m_CorrespondingSourceObject: {fileID: 0}
  m_PrefabInstance: {fileID: 0}
  m_PrefabAsset: {fileID: 0}
  m_GameObject: {fileID: 7242632815702308260}
  m_Enabled: 1
  m_EditorHideFlags: 0
  m_Script: {fileID: 11500000, guid: 0cd44c1031e13a943bb63640046fad76, type: 3}
  m_Name: 
  m_EditorClassIdentifier: 
  m_UiScaleMode: 1
  m_ReferencePixelsPerUnit: 100
  m_ScaleFactor: 1
  m_ReferenceResolution: {x: 1920, y: 1080}
  m_ScreenMatchMode: 0
  m_MatchWidthOrHeight: 1
  m_PhysicalUnit: 3
  m_FallbackScreenDPI: 96
  m_DefaultSpriteDPI: 96
  m_DynamicPixelsPerUnit: 1
--- !u!114 &7242632815702308259
MonoBehaviour:
  m_ObjectHideFlags: 0
  m_CorrespondingSourceObject: {fileID: 0}
  m_PrefabInstance: {fileID: 0}
  m_PrefabAsset: {fileID: 0}
  m_GameObject: {fileID: 7242632815702308260}
  m_Enabled: 1
  m_EditorHideFlags: 0
  m_Script: {fileID: 11500000, guid: dc42784cf147c0c48a680349fa168899, type: 3}
  m_Name: 
  m_EditorClassIdentifier: 
  m_IgnoreReversedGraphics: 1
  m_BlockingObjects: 0
  m_BlockingMask:
    serializedVersion: 2
    m_Bits: 4294967295
--- !u!1001 &3242095765908113029
PrefabInstance:
  m_ObjectHideFlags: 0
  serializedVersion: 2
  m_Modification:
    m_TransformParent: {fileID: 7242632815702308256}
    m_Modifications:
    - target: {fileID: 5223397972181802038, guid: ad286155827134e319302e314040945a,
        type: 3}
      propertyPath: m_Name
      value: AttackButton
      objectReference: {fileID: 0}
    - target: {fileID: 5223397972181802039, guid: ad286155827134e319302e314040945a,
        type: 3}
      propertyPath: m_Pivot.x
      value: 1
      objectReference: {fileID: 0}
    - target: {fileID: 5223397972181802039, guid: ad286155827134e319302e314040945a,
        type: 3}
      propertyPath: m_Pivot.y
      value: 0
      objectReference: {fileID: 0}
    - target: {fileID: 5223397972181802039, guid: ad286155827134e319302e314040945a,
        type: 3}
      propertyPath: m_RootOrder
      value: 0
      objectReference: {fileID: 0}
    - target: {fileID: 5223397972181802039, guid: ad286155827134e319302e314040945a,
        type: 3}
      propertyPath: m_AnchorMax.x
      value: 1
      objectReference: {fileID: 0}
    - target: {fileID: 5223397972181802039, guid: ad286155827134e319302e314040945a,
        type: 3}
      propertyPath: m_AnchorMax.y
      value: 0
      objectReference: {fileID: 0}
    - target: {fileID: 5223397972181802039, guid: ad286155827134e319302e314040945a,
        type: 3}
      propertyPath: m_AnchorMin.x
      value: 1
      objectReference: {fileID: 0}
    - target: {fileID: 5223397972181802039, guid: ad286155827134e319302e314040945a,
        type: 3}
      propertyPath: m_AnchorMin.y
      value: 0
      objectReference: {fileID: 0}
    - target: {fileID: 5223397972181802039, guid: ad286155827134e319302e314040945a,
        type: 3}
      propertyPath: m_SizeDelta.x
      value: 160
      objectReference: {fileID: 0}
    - target: {fileID: 5223397972181802039, guid: ad286155827134e319302e314040945a,
        type: 3}
      propertyPath: m_SizeDelta.y
      value: 160
      objectReference: {fileID: 0}
    - target: {fileID: 5223397972181802039, guid: ad286155827134e319302e314040945a,
        type: 3}
      propertyPath: m_LocalPosition.x
      value: 0
      objectReference: {fileID: 0}
    - target: {fileID: 5223397972181802039, guid: ad286155827134e319302e314040945a,
        type: 3}
      propertyPath: m_LocalPosition.y
      value: 0
      objectReference: {fileID: 0}
    - target: {fileID: 5223397972181802039, guid: ad286155827134e319302e314040945a,
        type: 3}
      propertyPath: m_LocalPosition.z
      value: 0
      objectReference: {fileID: 0}
    - target: {fileID: 5223397972181802039, guid: ad286155827134e319302e314040945a,
        type: 3}
      propertyPath: m_LocalRotation.w
      value: 1
      objectReference: {fileID: 0}
    - target: {fileID: 5223397972181802039, guid: ad286155827134e319302e314040945a,
        type: 3}
      propertyPath: m_LocalRotation.x
      value: 0
      objectReference: {fileID: 0}
    - target: {fileID: 5223397972181802039, guid: ad286155827134e319302e314040945a,
        type: 3}
      propertyPath: m_LocalRotation.y
      value: 0
      objectReference: {fileID: 0}
    - target: {fileID: 5223397972181802039, guid: ad286155827134e319302e314040945a,
        type: 3}
      propertyPath: m_LocalRotation.z
      value: 0
      objectReference: {fileID: 0}
    - target: {fileID: 5223397972181802039, guid: ad286155827134e319302e314040945a,
        type: 3}
      propertyPath: m_AnchoredPosition.x
      value: -150
      objectReference: {fileID: 0}
    - target: {fileID: 5223397972181802039, guid: ad286155827134e319302e314040945a,
        type: 3}
      propertyPath: m_AnchoredPosition.y
      value: 150
      objectReference: {fileID: 0}
    - target: {fileID: 5223397972181802039, guid: ad286155827134e319302e314040945a,
        type: 3}
      propertyPath: m_LocalEulerAnglesHint.x
      value: 0
      objectReference: {fileID: 0}
    - target: {fileID: 5223397972181802039, guid: ad286155827134e319302e314040945a,
        type: 3}
      propertyPath: m_LocalEulerAnglesHint.y
      value: 0
      objectReference: {fileID: 0}
    - target: {fileID: 5223397972181802039, guid: ad286155827134e319302e314040945a,
        type: 3}
      propertyPath: m_LocalEulerAnglesHint.z
      value: 0
      objectReference: {fileID: 0}
    m_RemovedComponents: []
  m_SourcePrefab: {fileID: 100100000, guid: ad286155827134e319302e314040945a, type: 3}
--- !u!224 &7242632815167412914 stripped
RectTransform:
  m_CorrespondingSourceObject: {fileID: 5223397972181802039, guid: ad286155827134e319302e314040945a,
    type: 3}
  m_PrefabInstance: {fileID: 3242095765908113029}
  m_PrefabAsset: {fileID: 0}
--- !u!1001 &4808302470191471161
PrefabInstance:
  m_ObjectHideFlags: 0
  serializedVersion: 2
  m_Modification:
    m_TransformParent: {fileID: 7242632815702308256}
    m_Modifications:
    - target: {fileID: 7940659057456599168, guid: 5b95f34e7742a4775800d0b27115950a,
        type: 3}
      propertyPath: m_Name
      value: JoystickArea
      objectReference: {fileID: 0}
    - target: {fileID: 8360854396778008817, guid: 5b95f34e7742a4775800d0b27115950a,
        type: 3}
      propertyPath: m_Pivot.x
      value: 0.5
      objectReference: {fileID: 0}
    - target: {fileID: 8360854396778008817, guid: 5b95f34e7742a4775800d0b27115950a,
        type: 3}
      propertyPath: m_Pivot.y
      value: 0.5
      objectReference: {fileID: 0}
    - target: {fileID: 8360854396778008817, guid: 5b95f34e7742a4775800d0b27115950a,
        type: 3}
      propertyPath: m_RootOrder
      value: 1
      objectReference: {fileID: 0}
    - target: {fileID: 8360854396778008817, guid: 5b95f34e7742a4775800d0b27115950a,
        type: 3}
      propertyPath: m_AnchorMax.x
      value: 0
      objectReference: {fileID: 0}
    - target: {fileID: 8360854396778008817, guid: 5b95f34e7742a4775800d0b27115950a,
        type: 3}
      propertyPath: m_AnchorMax.y
      value: 0
      objectReference: {fileID: 0}
    - target: {fileID: 8360854396778008817, guid: 5b95f34e7742a4775800d0b27115950a,
        type: 3}
      propertyPath: m_AnchorMin.x
      value: 0
      objectReference: {fileID: 0}
    - target: {fileID: 8360854396778008817, guid: 5b95f34e7742a4775800d0b27115950a,
        type: 3}
      propertyPath: m_AnchorMin.y
      value: 0
      objectReference: {fileID: 0}
    - target: {fileID: 8360854396778008817, guid: 5b95f34e7742a4775800d0b27115950a,
        type: 3}
      propertyPath: m_SizeDelta.x
      value: 400
      objectReference: {fileID: 0}
    - target: {fileID: 8360854396778008817, guid: 5b95f34e7742a4775800d0b27115950a,
        type: 3}
      propertyPath: m_SizeDelta.y
      value: 400
      objectReference: {fileID: 0}
    - target: {fileID: 8360854396778008817, guid: 5b95f34e7742a4775800d0b27115950a,
        type: 3}
      propertyPath: m_LocalPosition.x
      value: 0
      objectReference: {fileID: 0}
    - target: {fileID: 8360854396778008817, guid: 5b95f34e7742a4775800d0b27115950a,
        type: 3}
      propertyPath: m_LocalPosition.y
      value: 0
      objectReference: {fileID: 0}
    - target: {fileID: 8360854396778008817, guid: 5b95f34e7742a4775800d0b27115950a,
        type: 3}
      propertyPath: m_LocalPosition.z
      value: 0
      objectReference: {fileID: 0}
    - target: {fileID: 8360854396778008817, guid: 5b95f34e7742a4775800d0b27115950a,
        type: 3}
      propertyPath: m_LocalRotation.w
      value: 1
      objectReference: {fileID: 0}
    - target: {fileID: 8360854396778008817, guid: 5b95f34e7742a4775800d0b27115950a,
        type: 3}
      propertyPath: m_LocalRotation.x
      value: -0
      objectReference: {fileID: 0}
    - target: {fileID: 8360854396778008817, guid: 5b95f34e7742a4775800d0b27115950a,
        type: 3}
      propertyPath: m_LocalRotation.y
      value: -0
      objectReference: {fileID: 0}
    - target: {fileID: 8360854396778008817, guid: 5b95f34e7742a4775800d0b27115950a,
        type: 3}
      propertyPath: m_LocalRotation.z
      value: -0
      objectReference: {fileID: 0}
    - target: {fileID: 8360854396778008817, guid: 5b95f34e7742a4775800d0b27115950a,
        type: 3}
      propertyPath: m_AnchoredPosition.x
      value: 200
      objectReference: {fileID: 0}
    - target: {fileID: 8360854396778008817, guid: 5b95f34e7742a4775800d0b27115950a,
        type: 3}
      propertyPath: m_AnchoredPosition.y
      value: 200
      objectReference: {fileID: 0}
    - target: {fileID: 8360854396778008817, guid: 5b95f34e7742a4775800d0b27115950a,
        type: 3}
      propertyPath: m_LocalEulerAnglesHint.x
      value: 0
      objectReference: {fileID: 0}
    - target: {fileID: 8360854396778008817, guid: 5b95f34e7742a4775800d0b27115950a,
        type: 3}
      propertyPath: m_LocalEulerAnglesHint.y
      value: 0
      objectReference: {fileID: 0}
    - target: {fileID: 8360854396778008817, guid: 5b95f34e7742a4775800d0b27115950a,
        type: 3}
      propertyPath: m_LocalEulerAnglesHint.z
      value: 0
      objectReference: {fileID: 0}
    m_RemovedComponents: []
  m_SourcePrefab: {fileID: 100100000, guid: 5b95f34e7742a4775800d0b27115950a, type: 3}
--- !u!224 &3944376304175024840 stripped
RectTransform:
  m_CorrespondingSourceObject: {fileID: 8360854396778008817, guid: 5b95f34e7742a4775800d0b27115950a,
    type: 3}
  m_PrefabInstance: {fileID: 4808302470191471161}
  m_PrefabAsset: {fileID: 0}
